Reference, Quantity, Value, Footprint, Datasheet, PartNum
C1 C2 C3 C4 C5 C6 ,6,0.1uF 25V,Capacitors_SMD:C_0402,,C1005X7R1E104K050BB
J1 ,1,RaspberryPiRev2,NF6X_Connectors:RaspberryPiRev2,,5-534206-4 + 6-534206-3
J2 ,1,RS232-Yost-RJ45,NF6X_Connectors:Molex_95501-6890,,95501-6890
R1 R10 R11 R12 R2 R3 R4 R5 R6 R7 R8 R9 ,12,0,Resistors_SMD:R_0402,,RC0402JR-070RL
U1 ,1,ISL83387E,Housings_SSOP:TSSOP-24_4.4x7.8mm_Pitch0.65mm,,ISL83387EIVZ