EESchema Schematic File Version 2
LIBS:Interface
LIBS:Connectors
LIBS:Switches
LIBS:power
LIBS:PMIC
LIBS:device
LIBS:PI232B-cache
EELAYER 25 0
EELAYER END
$Descr USLetter 11000 8500
encoding utf-8
Sheet 1 1
Title "PI232B: RS232 Level Shifter for Raspberry Pi Model B"
Date "06/26/2015"
Rev "v1.0"
Comp "Mark J. Blair <nf6x@nf6x.net)"
Comment1 ""
Comment2 ""
Comment3 ""
Comment4 ""
$EndDescr
$Comp
L RS232-Yost-RJ45 J2
U 1 1 55877765
P 9550 4250
F 0 "J2" H 9550 4750 60  0000 C CNN
F 1 "RS232-Yost-RJ45" H 9500 3750 60  0000 C CNN
F 2 "NF6X_Connectors:Molex_95501-6890" H 9550 3550 60  0001 C CNN
F 3 "" H 9500 3750 60  0000 C CNN
F 4 "95501-6890" H 9550 3650 60  0000 C CNN "PartNum"
	1    9550 4250
	-1   0    0    1   
$EndComp
$Comp
L GND #PWR01
U 1 1 558777B4
P 8700 4800
F 0 "#PWR01" H 8700 4550 60  0001 C CNN
F 1 "GND" H 8700 4650 60  0000 C CNN
F 2 "" H 8700 4800 60  0000 C CNN
F 3 "" H 8700 4800 60  0000 C CNN
	1    8700 4800
	1    0    0    -1  
$EndComp
$Comp
L RaspberryPiRev2 J1
U 1 1 55879740
P 2200 2550
F 0 "J1" H 2200 3450 60  0000 C CNN
F 1 "RaspberryPiRev2" H 2200 1500 60  0000 C CNN
F 2 "NF6X_Connectors:RaspberryPiRev2" H 2200 1300 60  0001 C CNN
F 3 "" H 1400 3150 60  0000 C CNN
F 4 "5-534206-4 + 6-534206-3" H 2200 1400 60  0000 C CNN "PartNum"
	1    2200 2550
	1    0    0    -1  
$EndComp
$Comp
L GND #PWR02
U 1 1 558797F3
P 3350 3600
F 0 "#PWR02" H 3350 3350 60  0001 C CNN
F 1 "GND" H 3350 3450 60  0000 C CNN
F 2 "" H 3350 3600 60  0000 C CNN
F 3 "" H 3350 3600 60  0000 C CNN
	1    3350 3600
	1    0    0    -1  
$EndComp
$Comp
L GND #PWR03
U 1 1 5587982F
P 1050 3600
F 0 "#PWR03" H 1050 3350 60  0001 C CNN
F 1 "GND" H 1050 3450 60  0000 C CNN
F 2 "" H 1050 3600 60  0000 C CNN
F 3 "" H 1050 3600 60  0000 C CNN
	1    1050 3600
	1    0    0    -1  
$EndComp
$Comp
L ISL83387E U1
U 1 1 55879CC7
P 6250 3650
F 0 "U1" H 6250 3750 60  0000 C CNN
F 1 "ISL83387E" H 6250 3400 60  0000 C CNN
F 2 "Housings_SSOP:TSSOP-24_4.4x7.8mm_Pitch0.65mm" H 6400 2400 60  0001 C CNN
F 3 "" H 6250 3650 60  0000 C CNN
F 4 "ISL83387EIVZ" H 6250 3150 60  0001 C CNN "PartNum"
	1    6250 3650
	1    0    0    -1  
$EndComp
Wire Wire Line
	1050 3600 1050 2150
Wire Wire Line
	1050 2150 1200 2150
Wire Wire Line
	3350 3600 3350 1950
Wire Wire Line
	3350 1950 3200 1950
Wire Wire Line
	3200 2350 3350 2350
Connection ~ 3350 2350
Wire Wire Line
	3200 2650 3350 2650
Connection ~ 3350 2650
Wire Wire Line
	1200 2950 1050 2950
Connection ~ 1050 2950
Wire Wire Line
	1200 3450 1050 3450
Connection ~ 1050 3450
Wire Wire Line
	3200 3450 3350 3450
Connection ~ 3350 3450
$Comp
L GND #PWR04
U 1 1 5587A92E
P 7900 3100
F 0 "#PWR04" H 7900 2850 60  0001 C CNN
F 1 "GND" H 7900 2950 60  0000 C CNN
F 2 "" H 7900 3100 60  0000 C CNN
F 3 "" H 7900 3100 60  0000 C CNN
	1    7900 3100
	1    0    0    -1  
$EndComp
$Comp
L GND #PWR05
U 1 1 5587AA47
P 7300 3400
F 0 "#PWR05" H 7300 3150 60  0001 C CNN
F 1 "GND" H 7300 3250 60  0000 C CNN
F 2 "" H 7300 3400 60  0000 C CNN
F 3 "" H 7300 3400 60  0000 C CNN
	1    7300 3400
	1    0    0    -1  
$EndComp
$Comp
L GND #PWR06
U 1 1 5587AAFA
P 6700 2300
F 0 "#PWR06" H 6700 2050 60  0001 C CNN
F 1 "GND" H 6700 2150 60  0000 C CNN
F 2 "" H 6700 2300 60  0000 C CNN
F 3 "" H 6700 2300 60  0000 C CNN
	1    6700 2300
	1    0    0    -1  
$EndComp
Wire Wire Line
	6250 2300 6250 1750
Wire Wire Line
	6700 1750 6700 1850
Wire Wire Line
	6450 1750 6450 2300
Connection ~ 6450 1750
Wire Wire Line
	6700 2250 6700 2300
Wire Wire Line
	7900 3050 7900 3100
Wire Wire Line
	7700 3550 7700 3600
Wire Wire Line
	7700 3150 7050 3150
Wire Wire Line
	7900 2650 7050 2650
Wire Wire Line
	5450 2650 4950 2650
Wire Wire Line
	5450 3050 4950 3050
Wire Wire Line
	5450 3150 4950 3150
Wire Wire Line
	5450 3550 4950 3550
Connection ~ 6250 1750
$Comp
L +3V3 #PWR07
U 1 1 5587B4C8
P 5050 1700
F 0 "#PWR07" H 5050 1550 60  0001 C CNN
F 1 "+3V3" H 5050 1840 60  0000 C CNN
F 2 "" H 5050 1700 60  0000 C CNN
F 3 "" H 5050 1700 60  0000 C CNN
	1    5050 1700
	1    0    0    -1  
$EndComp
$Comp
L GND #PWR08
U 1 1 5587B5FA
P 6250 5600
F 0 "#PWR08" H 6250 5350 60  0001 C CNN
F 1 "GND" H 6250 5450 60  0000 C CNN
F 2 "" H 6250 5600 60  0000 C CNN
F 3 "" H 6250 5600 60  0000 C CNN
	1    6250 5600
	1    0    0    -1  
$EndComp
Wire Wire Line
	6250 5400 6250 5600
Wire Wire Line
	5450 5050 5300 5050
Wire Wire Line
	5300 5050 5300 5500
Wire Wire Line
	5300 5500 6250 5500
Connection ~ 6250 5500
$Comp
L +3V3 #PWR09
U 1 1 5587B8F3
P 5100 5100
F 0 "#PWR09" H 5100 4950 60  0001 C CNN
F 1 "+3V3" H 5100 5240 60  0000 C CNN
F 2 "" H 5100 5100 60  0000 C CNN
F 3 "" H 5100 5100 60  0000 C CNN
	1    5100 5100
	1    0    0    -1  
$EndComp
Wire Wire Line
	5100 5150 5450 5150
Wire Wire Line
	5100 5150 5100 5100
$Comp
L C C1
U 1 1 5587BDF3
P 4950 2850
F 0 "C1" H 4950 2950 40  0000 L CNN
F 1 "0.1uF 25V" H 4956 2765 40  0000 L CNN
F 2 "Capacitors_SMD:C_0402" H 4988 2700 30  0001 C CNN
F 3 "" H 4950 2850 60  0000 C CNN
F 4 "C1005X7R1E104K050BB" H 4950 2850 60  0001 C CNN "PartNum"
	1    4950 2850
	1    0    0    -1  
$EndComp
Wire Wire Line
	3200 2050 3700 2050
Wire Wire Line
	3700 2050 3700 4150
Wire Wire Line
	3200 2150 3650 2150
Wire Wire Line
	3650 2150 3650 4350
Wire Wire Line
	3500 4750 3500 3350
Wire Wire Line
	3500 3350 3200 3350
Wire Wire Line
	1200 3350 850  3350
NoConn ~ 7050 5150
Wire Wire Line
	7700 3600 7500 3600
Wire Wire Line
	7500 3600 7500 3350
Wire Wire Line
	7500 3350 7300 3350
Wire Wire Line
	7300 3350 7300 3400
Wire Wire Line
	8700 4800 8700 4200
Wire Wire Line
	8700 4200 8950 4200
Wire Wire Line
	8950 4300 8700 4300
Connection ~ 8700 4300
Wire Wire Line
	8600 4150 8600 4100
Wire Wire Line
	8600 4100 8950 4100
Wire Wire Line
	8600 4350 8600 4400
Wire Wire Line
	8600 4400 8950 4400
Wire Wire Line
	8500 3950 8500 4000
Wire Wire Line
	8500 4000 8950 4000
Wire Wire Line
	8500 4550 8500 4500
Wire Wire Line
	8500 4500 8950 4500
Wire Wire Line
	8400 4750 8400 4600
Wire Wire Line
	8400 4600 8950 4600
Wire Wire Line
	8400 3750 8400 3900
Wire Wire Line
	8400 3900 8950 3900
Wire Wire Line
	3200 2250 3600 2250
Wire Wire Line
	3600 2250 3600 3950
Wire Wire Line
	3950 3750 3950 3900
Wire Wire Line
	3950 3900 850  3900
Wire Wire Line
	850  3900 850  3350
Wire Wire Line
	1200 2250 800  2250
Wire Wire Line
	800  2250 800  4550
NoConn ~ 1200 1850
NoConn ~ 1200 1950
NoConn ~ 1200 2050
NoConn ~ 1200 2350
NoConn ~ 1200 2450
NoConn ~ 1200 2650
NoConn ~ 1200 2750
NoConn ~ 1200 2850
NoConn ~ 1200 3250
NoConn ~ 3200 3250
NoConn ~ 3200 2950
NoConn ~ 3200 2850
NoConn ~ 3200 2750
NoConn ~ 3200 2550
NoConn ~ 3200 2450
Wire Wire Line
	950  1500 4750 1500
Wire Wire Line
	4750 1500 4750 1750
Wire Wire Line
	4750 1750 7150 1750
Wire Wire Line
	5050 1700 5050 1750
Connection ~ 5050 1750
NoConn ~ 3200 1750
NoConn ~ 3200 1850
NoConn ~ 3200 3150
$Comp
L C C2
U 1 1 5588190F
P 4950 3350
F 0 "C2" H 4950 3450 40  0000 L CNN
F 1 "0.1uF 25V" H 4956 3265 40  0000 L CNN
F 2 "Capacitors_SMD:C_0402" H 4988 3200 30  0001 C CNN
F 3 "" H 4950 3350 60  0000 C CNN
F 4 "C1005X7R1E104K050BB" H 4950 3350 60  0001 C CNN "PartNum"
	1    4950 3350
	1    0    0    -1  
$EndComp
$Comp
L C C3
U 1 1 55881934
P 6700 2050
F 0 "C3" H 6700 2150 40  0000 L CNN
F 1 "0.1uF 25V" H 6706 1965 40  0000 L CNN
F 2 "Capacitors_SMD:C_0402" H 6738 1900 30  0001 C CNN
F 3 "" H 6700 2050 60  0000 C CNN
F 4 "C1005X7R1E104K050BB" H 6700 2050 60  0001 C CNN "PartNum"
	1    6700 2050
	1    0    0    -1  
$EndComp
$Comp
L C C5
U 1 1 5588196C
P 7900 2850
F 0 "C5" H 7900 2950 40  0000 L CNN
F 1 "0.1uF 25V" H 7906 2765 40  0000 L CNN
F 2 "Capacitors_SMD:C_0402" H 7938 2700 30  0001 C CNN
F 3 "" H 7900 2850 60  0000 C CNN
F 4 "C1005X7R1E104K050BB" H 7900 2850 60  0001 C CNN "PartNum"
	1    7900 2850
	1    0    0    -1  
$EndComp
$Comp
L C C4
U 1 1 5588199C
P 7700 3350
F 0 "C4" H 7700 3450 40  0000 L CNN
F 1 "0.1uF 25V" H 7706 3265 40  0000 L CNN
F 2 "Capacitors_SMD:C_0402" H 7738 3200 30  0001 C CNN
F 3 "" H 7700 3350 60  0000 C CNN
F 4 "C1005X7R1E104K050BB" H 7700 3350 60  0001 C CNN "PartNum"
	1    7700 3350
	1    0    0    -1  
$EndComp
$Comp
L R R1
U 1 1 55881A0C
P 4700 3750
F 0 "R1" V 4780 3750 40  0000 C CNN
F 1 "0" V 4707 3751 40  0000 C CNN
F 2 "Resistors_SMD:R_0402" V 4630 3750 30  0001 C CNN
F 3 "" H 4700 3750 30  0000 C CNN
F 4 "RC0402JR-070RL" V 4700 3750 60  0001 C CNN "PartNum"
	1    4700 3750
	0    1    1    0   
$EndComp
$Comp
L R R2
U 1 1 55881B40
P 4700 3950
F 0 "R2" V 4780 3950 40  0000 C CNN
F 1 "0" V 4707 3951 40  0000 C CNN
F 2 "Resistors_SMD:R_0402" V 4630 3950 30  0001 C CNN
F 3 "" H 4700 3950 30  0000 C CNN
F 4 "RC0402JR-070RL" V 4700 3950 60  0001 C CNN "PartNum"
	1    4700 3950
	0    1    1    0   
$EndComp
$Comp
L R R3
U 1 1 55881B69
P 4700 4150
F 0 "R3" V 4780 4150 40  0000 C CNN
F 1 "0" V 4707 4151 40  0000 C CNN
F 2 "Resistors_SMD:R_0402" V 4630 4150 30  0001 C CNN
F 3 "" H 4700 4150 30  0000 C CNN
F 4 "RC0402JR-070RL" V 4700 4150 60  0001 C CNN "PartNum"
	1    4700 4150
	0    1    1    0   
$EndComp
$Comp
L R R4
U 1 1 55881B94
P 4700 4350
F 0 "R4" V 4780 4350 40  0000 C CNN
F 1 "0" V 4707 4351 40  0000 C CNN
F 2 "Resistors_SMD:R_0402" V 4630 4350 30  0001 C CNN
F 3 "" H 4700 4350 30  0000 C CNN
F 4 "RC0402JR-070RL" V 4700 4350 60  0001 C CNN "PartNum"
	1    4700 4350
	0    1    1    0   
$EndComp
$Comp
L R R5
U 1 1 55881BC4
P 4700 4550
F 0 "R5" V 4780 4550 40  0000 C CNN
F 1 "0" V 4707 4551 40  0000 C CNN
F 2 "Resistors_SMD:R_0402" V 4630 4550 30  0001 C CNN
F 3 "" H 4700 4550 30  0000 C CNN
F 4 "RC0402JR-070RL" V 4700 4550 60  0001 C CNN "PartNum"
	1    4700 4550
	0    1    1    0   
$EndComp
$Comp
L R R6
U 1 1 55881BF3
P 4700 4750
F 0 "R6" V 4780 4750 40  0000 C CNN
F 1 "0" V 4707 4751 40  0000 C CNN
F 2 "Resistors_SMD:R_0402" V 4630 4750 30  0001 C CNN
F 3 "" H 4700 4750 30  0000 C CNN
F 4 "RC0402JR-070RL" V 4700 4750 60  0001 C CNN "PartNum"
	1    4700 4750
	0    1    1    0   
$EndComp
Wire Wire Line
	3950 3750 4450 3750
Wire Wire Line
	4950 3750 5450 3750
Wire Wire Line
	4950 3950 5450 3950
Wire Wire Line
	5450 4150 4950 4150
Wire Wire Line
	4950 4350 5450 4350
Wire Wire Line
	5450 4550 4950 4550
Wire Wire Line
	4950 4750 5450 4750
Wire Wire Line
	3600 3950 4450 3950
Wire Wire Line
	3700 4150 4450 4150
Wire Wire Line
	3650 4350 4450 4350
Wire Wire Line
	4450 4750 3500 4750
Wire Wire Line
	800  4550 4450 4550
$Comp
L R R7
U 1 1 558822FC
P 7650 3750
F 0 "R7" V 7730 3750 40  0000 C CNN
F 1 "0" V 7657 3751 40  0000 C CNN
F 2 "Resistors_SMD:R_0402" V 7580 3750 30  0001 C CNN
F 3 "" H 7650 3750 30  0000 C CNN
F 4 "RC0402JR-070RL" V 7650 3750 60  0001 C CNN "PartNum"
	1    7650 3750
	0    1    1    0   
$EndComp
$Comp
L R R8
U 1 1 55882433
P 7650 3950
F 0 "R8" V 7730 3950 40  0000 C CNN
F 1 "0" V 7657 3951 40  0000 C CNN
F 2 "Resistors_SMD:R_0402" V 7580 3950 30  0001 C CNN
F 3 "" H 7650 3950 30  0000 C CNN
F 4 "RC0402JR-070RL" V 7650 3950 60  0001 C CNN "PartNum"
	1    7650 3950
	0    1    1    0   
$EndComp
$Comp
L R R9
U 1 1 55882468
P 7650 4150
F 0 "R9" V 7730 4150 40  0000 C CNN
F 1 "0" V 7657 4151 40  0000 C CNN
F 2 "Resistors_SMD:R_0402" V 7580 4150 30  0001 C CNN
F 3 "" H 7650 4150 30  0000 C CNN
F 4 "RC0402JR-070RL" V 7650 4150 60  0001 C CNN "PartNum"
	1    7650 4150
	0    1    1    0   
$EndComp
$Comp
L R R10
U 1 1 558824D4
P 7650 4350
F 0 "R10" V 7730 4350 40  0000 C CNN
F 1 "0" V 7657 4351 40  0000 C CNN
F 2 "Resistors_SMD:R_0402" V 7580 4350 30  0001 C CNN
F 3 "" H 7650 4350 30  0000 C CNN
F 4 "RC0402JR-070RL" V 7650 4350 60  0001 C CNN "PartNum"
	1    7650 4350
	0    1    1    0   
$EndComp
$Comp
L R R11
U 1 1 5588250D
P 7650 4550
F 0 "R11" V 7730 4550 40  0000 C CNN
F 1 "0" V 7657 4551 40  0000 C CNN
F 2 "Resistors_SMD:R_0402" V 7580 4550 30  0001 C CNN
F 3 "" H 7650 4550 30  0000 C CNN
F 4 "RC0402JR-070RL" V 7650 4550 60  0001 C CNN "PartNum"
	1    7650 4550
	0    1    1    0   
$EndComp
$Comp
L R R12
U 1 1 5588254A
P 7650 4750
F 0 "R12" V 7730 4750 40  0000 C CNN
F 1 "0" V 7657 4751 40  0000 C CNN
F 2 "Resistors_SMD:R_0402" V 7580 4750 30  0001 C CNN
F 3 "" H 7650 4750 30  0000 C CNN
F 4 "RC0402JR-070RL" V 7650 4750 60  0001 C CNN "PartNum"
	1    7650 4750
	0    1    1    0   
$EndComp
Wire Wire Line
	8400 3750 7900 3750
Wire Wire Line
	8500 3950 7900 3950
Wire Wire Line
	8600 4150 7900 4150
Wire Wire Line
	8600 4350 7900 4350
Wire Wire Line
	8500 4550 7900 4550
Wire Wire Line
	8400 4750 7900 4750
Wire Wire Line
	7400 4750 7050 4750
Wire Wire Line
	7050 4550 7400 4550
Wire Wire Line
	7400 4350 7050 4350
Wire Wire Line
	7050 4150 7400 4150
Wire Wire Line
	7400 3950 7050 3950
Wire Wire Line
	7050 3750 7400 3750
Wire Wire Line
	950  1500 950  3150
NoConn ~ 1200 1750
$Comp
L C C6
U 1 1 55883351
P 7150 2050
F 0 "C6" H 7150 2150 40  0000 L CNN
F 1 "0.1uF 25V" H 7156 1965 40  0000 L CNN
F 2 "Capacitors_SMD:C_0402" H 7188 1900 30  0001 C CNN
F 3 "" H 7150 2050 60  0000 C CNN
F 4 "C1005X7R1E104K050BB" H 7150 2050 60  0001 C CNN "PartNum"
	1    7150 2050
	1    0    0    -1  
$EndComp
Wire Wire Line
	7150 1750 7150 1850
Connection ~ 6700 1750
$Comp
L GND #PWR010
U 1 1 5588348F
P 7150 2300
F 0 "#PWR010" H 7150 2050 60  0001 C CNN
F 1 "GND" H 7150 2150 60  0000 C CNN
F 2 "" H 7150 2300 60  0000 C CNN
F 3 "" H 7150 2300 60  0000 C CNN
	1    7150 2300
	1    0    0    -1  
$EndComp
Wire Wire Line
	7150 2250 7150 2300
Wire Wire Line
	950  3150 1200 3150
NoConn ~ 1200 2550
$EndSCHEMATC
