G04 #@! TF.FileFunction,Soldermask,Bot*
%FSLAX46Y46*%
G04 Gerber Fmt 4.6, Leading zero omitted, Abs format (unit mm)*
G04 Created by KiCad (PCBNEW (2014-12-16 BZR 5324)-product) date Friday, June 26, 2015 'AMt' 08:13:16 AM*
%MOMM*%
G01*
G04 APERTURE LIST*
%ADD10C,0.127000*%
%ADD11R,1.924000X1.924000*%
%ADD12C,1.924000*%
%ADD13C,3.650000*%
G04 APERTURE END LIST*
D10*
D11*
X146050000Y-104140000D03*
D12*
X146050000Y-106680000D03*
X148590000Y-104140000D03*
X148590000Y-106680000D03*
X151130000Y-104140000D03*
X151130000Y-106680000D03*
X153670000Y-104140000D03*
X153670000Y-106680000D03*
X156210000Y-104140000D03*
X156210000Y-106680000D03*
X158750000Y-104140000D03*
X158750000Y-106680000D03*
X161290000Y-104140000D03*
X161290000Y-106680000D03*
X163830000Y-104140000D03*
X163830000Y-106680000D03*
X166370000Y-104140000D03*
X166370000Y-106680000D03*
X168910000Y-104140000D03*
X168910000Y-106680000D03*
X171450000Y-104140000D03*
X171450000Y-106680000D03*
X173990000Y-104140000D03*
X173990000Y-106680000D03*
X176530000Y-104140000D03*
X176530000Y-106680000D03*
D11*
X151130000Y-101600000D03*
D12*
X151130000Y-99060000D03*
X153670000Y-101600000D03*
X153670000Y-99060000D03*
X156210000Y-101600000D03*
X156210000Y-99060000D03*
X158750000Y-101600000D03*
X158750000Y-99060000D03*
D13*
X123370000Y-99695000D03*
X123370000Y-111125000D03*
M02*
